[
   {
      "name": "Unmaintained",
      "description": "This device is not maintained, nobody is actively developing it and it will not receive fixes for known issues.</br>If you are a developer we encourage you to contact the porter to continue development."
   },
   {
      "name": "In development",
      "description": "The device is still in development and has partial functionality.</br>When the port will get full functionality and will be added to the installer it will become supported."
   },
   {
      "name": "Community maintained",
      "description": "Developers from the community built this port and reported full functionality.</br>The device is actively receiving updates and is available in the installer."
   },
   {
      "name": "Supported by device maker",
      "description": "UBports builds this port in collaboration with the phone maker.</br>Expect long-lasting support since we have an official agreement with the partner."
   }
]
